%YAML 1.1
%TAG !u! tag:unity3d.com,2011:
--- !u!114 &11400000
MonoBehaviour:
  m_ObjectHideFlags: 0
  m_PrefabParentObject: {fileID: 0}
  m_PrefabInternal: {fileID: 0}
  m_GameObject: {fileID: 0}
  m_Enabled: 1
  m_EditorHideFlags: 0
  m_Script: {fileID: 11500000, guid: b66d6f194803894449fca6ceb199f51b, type: 3}
  m_Name: Sun
  m_EditorClassIdentifier: 
  available: 0
  icon: {fileID: 21300000, guid: e37335177629a1a478cb4597bbafa210, type: 3}
  skinRarity: {fileID: 114500461961988348, guid: 773997ea5ab1b784da83455eb35ac61f,
    type: 2}
  texture: {fileID: 2800000, guid: 35634ecef04c40f4ea122a58f696ea26, type: 3}
  mesh: {fileID: 4300000, guid: 09a8010fce5ad224dba17813773a26af, type: 3}
