%YAML 1.1
%TAG !u! tag:unity3d.com,2011:
--- !u!114 &11400000
MonoBehaviour:
  m_ObjectHideFlags: 0
  m_PrefabParentObject: {fileID: 0}
  m_PrefabInternal: {fileID: 0}
  m_GameObject: {fileID: 0}
  m_Enabled: 1
  m_EditorHideFlags: 0
  m_Script: {fileID: 11500000, guid: d6922a678b436874599ef8632cc1f718, type: 3}
  m_Name: Eris
  m_EditorClassIdentifier: 
  available: 0
  icon: {fileID: 0}
  skinRarity: {fileID: 0}
  texture: {fileID: 0}
  mesh: {fileID: 0}
  asteroidTexture: {fileID: 0}
  asteroidMesh: {fileID: 0}
