%YAML 1.1
%TAG !u! tag:unity3d.com,2011:
--- !u!114 &11400000
MonoBehaviour:
  m_ObjectHideFlags: 0
  m_PrefabParentObject: {fileID: 0}
  m_PrefabInternal: {fileID: 0}
  m_GameObject: {fileID: 0}
  m_Enabled: 1
  m_EditorHideFlags: 0
  m_Script: {fileID: 11500000, guid: cc3a3f1652896b84d8f18e43cbacdbc5, type: 3}
  m_Name: GameManager
  m_EditorClassIdentifier: 
  currentGameData: {fileID: 11400000, guid: 0ae36be54b839e04d801b7c35440ed5b, type: 2}
  myJsonTextAsset: {fileID: 4900000, guid: 9e083cb0306716241b41e9af4d21b4b0, type: 3}
  myDB: {fileID: 11400000, guid: e0b468d548211274fb25e345643d5c7a, type: 2}
