%YAML 1.1
%TAG !u! tag:unity3d.com,2011:
--- !u!114 &11400000
MonoBehaviour:
  m_ObjectHideFlags: 0
  m_PrefabParentObject: {fileID: 0}
  m_PrefabInternal: {fileID: 0}
  m_GameObject: {fileID: 0}
  m_Enabled: 1
  m_EditorHideFlags: 0
  m_Script: {fileID: 11500000, guid: 801a55ab158e6ac4983dff3c0ff7bdc7, type: 3}
  m_Name: StatusBlockingSkill
  m_EditorClassIdentifier: 
  timeWorking: 25
  type: {fileID: 114792885959270460, guid: 6753a4f9e4c122e4ebe20e548c476438, type: 2}
