%YAML 1.1
%TAG !u! tag:unity3d.com,2011:
--- !u!114 &11400000
MonoBehaviour:
  m_ObjectHideFlags: 0
  m_PrefabParentObject: {fileID: 0}
  m_PrefabInternal: {fileID: 0}
  m_GameObject: {fileID: 0}
  m_Enabled: 1
  m_EditorHideFlags: 0
  m_Script: {fileID: 11500000, guid: 794d325a730664443a02aca172b1b631, type: 3}
  m_Name: 25WaterMaterialPackage
  m_EditorClassIdentifier: 
  cost: 100
  material: {fileID: 114838286445715430, guid: 6b1315d384bc49640bb6fb954df922c6, type: 2}
  materials: {fileID: 11400000, guid: 8e3b50554c5701d4fbc7f3e70d0bbed3, type: 2}
  amount: 25
