%YAML 1.1
%TAG !u! tag:unity3d.com,2011:
--- !u!114 &11400000
MonoBehaviour:
  m_ObjectHideFlags: 0
  m_PrefabParentObject: {fileID: 0}
  m_PrefabInternal: {fileID: 0}
  m_GameObject: {fileID: 0}
  m_Enabled: 1
  m_EditorHideFlags: 0
  m_Script: {fileID: 11500000, guid: 6a0c7cf25574bab4d94293faae7a39ee, type: 3}
  m_Name: CardTypes
  m_EditorClassIdentifier: 
  Types:
  - {fileID: 114555879258730818}
  - {fileID: 114792885959270460}
  - {fileID: 114538989057707314}
  - {fileID: 114359010026504362}
  TypeColor:
  - {r: 0.3529412, g: 0.627451, b: 0.17254902, a: 1}
  - {r: 0.6943296, g: 0.2640571, b: 0.8161765, a: 1}
  - {r: 0.83823526, g: 0.23421282, b: 0.23421282, a: 1}
  - {r: 0.9117647, g: 0.891606, b: 0.18101211, a: 1}
  TypeSprite:
  - {fileID: 0}
  - {fileID: 0}
  - {fileID: 0}
  - {fileID: 0}
--- !u!114 &114359010026504362
MonoBehaviour:
  m_ObjectHideFlags: 0
  m_PrefabParentObject: {fileID: 0}
  m_PrefabInternal: {fileID: 0}
  m_GameObject: {fileID: 0}
  m_Enabled: 1
  m_EditorHideFlags: 0
  m_Script: {fileID: 11500000, guid: a15e836a594a1874fa315ac3783fb04d, type: 3}
  m_Name: Event
  m_EditorClassIdentifier: 
--- !u!114 &114538989057707314
MonoBehaviour:
  m_ObjectHideFlags: 0
  m_PrefabParentObject: {fileID: 0}
  m_PrefabInternal: {fileID: 0}
  m_GameObject: {fileID: 0}
  m_Enabled: 1
  m_EditorHideFlags: 0
  m_Script: {fileID: 11500000, guid: a15e836a594a1874fa315ac3783fb04d, type: 3}
  m_Name: Hurt
  m_EditorClassIdentifier: 
--- !u!114 &114555879258730818
MonoBehaviour:
  m_ObjectHideFlags: 0
  m_PrefabParentObject: {fileID: 0}
  m_PrefabInternal: {fileID: 0}
  m_GameObject: {fileID: 0}
  m_Enabled: 1
  m_EditorHideFlags: 0
  m_Script: {fileID: 11500000, guid: a15e836a594a1874fa315ac3783fb04d, type: 3}
  m_Name: Benefit
  m_EditorClassIdentifier: 
--- !u!114 &114792885959270460
MonoBehaviour:
  m_ObjectHideFlags: 0
  m_PrefabParentObject: {fileID: 0}
  m_PrefabInternal: {fileID: 0}
  m_GameObject: {fileID: 0}
  m_Enabled: 1
  m_EditorHideFlags: 0
  m_Script: {fileID: 11500000, guid: a15e836a594a1874fa315ac3783fb04d, type: 3}
  m_Name: Status
  m_EditorClassIdentifier: 
