%YAML 1.1
%TAG !u! tag:unity3d.com,2011:
--- !u!114 &11400000
MonoBehaviour:
  m_ObjectHideFlags: 0
  m_PrefabParentObject: {fileID: 0}
  m_PrefabInternal: {fileID: 0}
  m_GameObject: {fileID: 0}
  m_Enabled: 1
  m_EditorHideFlags: 0
  m_Script: {fileID: 11500000, guid: 9b72c8539b1afeb4cb8af1a0340773fc, type: 3}
  m_Name: Craft Factory
  m_EditorClassIdentifier: 
  collection: {fileID: 11400000, guid: 895dd728d28da454899a05052d403901, type: 2}
  materials: {fileID: 11400000, guid: 6b1315d384bc49640bb6fb954df922c6, type: 2}
  playerMaterials: {fileID: 11400000, guid: 8e3b50554c5701d4fbc7f3e70d0bbed3, type: 2}
  materialsPerRarity:
  - rarityLevel: {fileID: 114500461961988348, guid: 773997ea5ab1b784da83455eb35ac61f,
      type: 2}
    requiredMaterials:
    - material: {fileID: 114838286445715430, guid: 6b1315d384bc49640bb6fb954df922c6,
        type: 2}
      _materialAmount: 5
    - material: {fileID: 114327404236084418, guid: 6b1315d384bc49640bb6fb954df922c6,
        type: 2}
      _materialAmount: 80
    - material: {fileID: 114025374524864524, guid: 6b1315d384bc49640bb6fb954df922c6,
        type: 2}
      _materialAmount: 10
  - rarityLevel: {fileID: 114224971264587892, guid: 773997ea5ab1b784da83455eb35ac61f,
      type: 2}
    requiredMaterials:
    - material: {fileID: 114838286445715430, guid: 6b1315d384bc49640bb6fb954df922c6,
        type: 2}
      _materialAmount: 48
    - material: {fileID: 114327404236084418, guid: 6b1315d384bc49640bb6fb954df922c6,
        type: 2}
      _materialAmount: 20
    - material: {fileID: 114025374524864524, guid: 6b1315d384bc49640bb6fb954df922c6,
        type: 2}
      _materialAmount: 12
  - rarityLevel: {fileID: 114348862925351440, guid: 773997ea5ab1b784da83455eb35ac61f,
      type: 2}
    requiredMaterials:
    - material: {fileID: 114838286445715430, guid: 6b1315d384bc49640bb6fb954df922c6,
        type: 2}
      _materialAmount: 28
    - material: {fileID: 114327404236084418, guid: 6b1315d384bc49640bb6fb954df922c6,
        type: 2}
      _materialAmount: 24
    - material: {fileID: 114025374524864524, guid: 6b1315d384bc49640bb6fb954df922c6,
        type: 2}
      _materialAmount: 8
  - rarityLevel: {fileID: 114652366073533820, guid: 773997ea5ab1b784da83455eb35ac61f,
      type: 2}
    requiredMaterials:
    - material: {fileID: 114838286445715430, guid: 6b1315d384bc49640bb6fb954df922c6,
        type: 2}
      _materialAmount: 14
    - material: {fileID: 114327404236084418, guid: 6b1315d384bc49640bb6fb954df922c6,
        type: 2}
      _materialAmount: 14
    - material: {fileID: 114025374524864524, guid: 6b1315d384bc49640bb6fb954df922c6,
        type: 2}
      _materialAmount: 40
