%YAML 1.1
%TAG !u! tag:unity3d.com,2011:
--- !u!114 &11400000
MonoBehaviour:
  m_ObjectHideFlags: 0
  m_PrefabParentObject: {fileID: 0}
  m_PrefabInternal: {fileID: 0}
  m_GameObject: {fileID: 0}
  m_Enabled: 1
  m_EditorHideFlags: 0
  m_Script: {fileID: 11500000, guid: 0f67aa4876eaf0b4481519dbbdae612c, type: 3}
  m_Name: Mu Cassiopeiae
  m_EditorClassIdentifier: 
  CurrentSkin: {fileID: 11400000, guid: d78b9498ea0ad4d44b4e8a80b363e0c1, type: 2}
  data:
    _ID: 10003
    description: 
    type: {fileID: 0}
    rarity: {fileID: 114652366073533820, guid: 773997ea5ab1b784da83455eb35ac61f, type: 2}
    stats:
      life: 16
      size: 8
      cooldown: 100
    growthPerLevel:
    - life: 2
      size: 0
      cooldown: -5
    - life: 2
      size: 0
      cooldown: -5
    - life: 2
      size: 0
      cooldown: -5
    - life: 2
      size: 0
      cooldown: -5
    - life: 2
      size: -1
      cooldown: -5
    - life: 2
      size: 0
      cooldown: -5
    - life: 2
      size: 0
      cooldown: 0
    - life: 5
      size: 0
      cooldown: 0
    - life: 10
      size: 0
      cooldown: 5
    skill: {fileID: 0}
