%YAML 1.1
%TAG !u! tag:unity3d.com,2011:
--- !u!114 &11400000
MonoBehaviour:
  m_ObjectHideFlags: 0
  m_PrefabParentObject: {fileID: 0}
  m_PrefabInternal: {fileID: 0}
  m_GameObject: {fileID: 0}
  m_Enabled: 1
  m_EditorHideFlags: 0
  m_Script: {fileID: 11500000, guid: 93617dddcb92a4a45bfdf9f23368b375, type: 3}
  m_Name: Mars
  m_EditorClassIdentifier: 
  CurrentSkin: {fileID: 11400000, guid: e40f0b0d2404de24c8a4a9f9a72bde6b, type: 2}
  data:
    _ID: 20004
    description: 
    type: {fileID: 114327404236084418, guid: 6b1315d384bc49640bb6fb954df922c6, type: 2}
    rarity: {fileID: 114224971264587892, guid: 773997ea5ab1b784da83455eb35ac61f, type: 2}
    stats:
      life: 8
      size: 1
      ammunitionLimit: 13
      cooldown: 1
    growthPerLevel:
    - life: 2
      size: 0
      ammunitionLimit: 1
      cooldown: 0
    - life: 4
      size: 0
      ammunitionLimit: 1
      cooldown: 0
    - life: 3
      size: 0
      ammunitionLimit: 1
      cooldown: 0
    - life: 1
      size: 0
      ammunitionLimit: 1
      cooldown: 0
    - life: 1
      size: 0
      ammunitionLimit: 1
      cooldown: 0
    - life: 1
      size: 0
      ammunitionLimit: 0
      cooldown: 0
    - life: 1
      size: 0
      ammunitionLimit: 0
      cooldown: 0
    - life: 1
      size: 0
      ammunitionLimit: 1
      cooldown: 0
    - life: 2
      size: 0
      ammunitionLimit: 0
      cooldown: 0
    asteroidsPerLevel:
    - life: 1
      size: 1
      speed: 0
      damage: 1
    - life: 0
      size: 0
      speed: 0
      damage: 0
    - life: 0
      size: 0
      speed: 0
      damage: 0
    - life: 0
      size: 0
      speed: 0
      damage: 1
    - life: 0
      size: 0
      speed: 1
      damage: 0
    - life: 0
      size: 0
      speed: 0
      damage: 0
    - life: 0
      size: 0
      speed: 1
      damage: 0
    - life: 0
      size: 0
      speed: 0
      damage: 0
    - life: 0
      size: 0
      speed: 0
      damage: 0
    - life: 0
      size: 0
      speed: 1
      damage: 0
    skill: {fileID: 11400000, guid: c32a4a0706296584fb7b1c0fda23c5f8, type: 2}
    overridenSkillCost: 0
