%YAML 1.1
%TAG !u! tag:unity3d.com,2011:
--- !u!114 &11400000
MonoBehaviour:
  m_ObjectHideFlags: 0
  m_PrefabParentObject: {fileID: 0}
  m_PrefabInternal: {fileID: 0}
  m_GameObject: {fileID: 0}
  m_Enabled: 1
  m_EditorHideFlags: 0
  m_Script: {fileID: 11500000, guid: 685a469b957ce584eae95b7dd8c3ca85, type: 3}
  m_Name: Wait
  m_EditorClassIdentifier: 
  actions:
  - {fileID: 11400000, guid: 385d482c29ea6df478a12052ffabf076, type: 2}
  transitions: []
