%YAML 1.1
%TAG !u! tag:unity3d.com,2011:
--- !u!114 &11400000
MonoBehaviour:
  m_ObjectHideFlags: 0
  m_PrefabParentObject: {fileID: 0}
  m_PrefabInternal: {fileID: 0}
  m_GameObject: {fileID: 0}
  m_Enabled: 1
  m_EditorHideFlags: 0
  m_Script: {fileID: 11500000, guid: b5d9540566405e44db064089e24a8283, type: 3}
  m_Name: Clone Event
  m_EditorClassIdentifier: 
  CurrentSkin: {fileID: 0}
  data:
    _ID: 00008
    description: 
    type: {fileID: 114359010026504362, guid: 6753a4f9e4c122e4ebe20e548c476438, type: 2}
    rarity: {fileID: 114224971264587892, guid: 773997ea5ab1b784da83455eb35ac61f, type: 2}
    skill: {fileID: 0}
