%YAML 1.1
%TAG !u! tag:unity3d.com,2011:
--- !u!114 &11400000
MonoBehaviour:
  m_ObjectHideFlags: 0
  m_PrefabParentObject: {fileID: 0}
  m_PrefabInternal: {fileID: 0}
  m_GameObject: {fileID: 0}
  m_Enabled: 1
  m_EditorHideFlags: 0
  m_Script: {fileID: 11500000, guid: 0f67aa4876eaf0b4481519dbbdae612c, type: 3}
  m_Name: Sun
  m_EditorClassIdentifier: 
  CurrentSkin: {fileID: 11400000, guid: 30a9baf2e7e35184f83fc14817dd7c6c, type: 2}
  data:
    _ID: 10000
    description: 
    type: {fileID: 0}
    rarity: {fileID: 114500461961988348, guid: 773997ea5ab1b784da83455eb35ac61f, type: 2}
    stats:
      life: 10
      size: 8
      cooldown: 50
    growthPerLevel:
    - life: 1
      size: 0
      cooldown: -2
    - life: 1
      size: 0
      cooldown: -2
    - life: 1
      size: 0
      cooldown: -2
    - life: 1
      size: 0
      cooldown: -2
    - life: 1
      size: 0
      cooldown: -2
    - life: 1
      size: 0
      cooldown: -2
    - life: 1
      size: 0
      cooldown: -2
    - life: 1
      size: 0
      cooldown: -2
    - life: 10
      size: 0
      cooldown: 5
    skill: {fileID: 11400000, guid: 70da58925057d1e4d8438a522dd8428b, type: 2}
