%YAML 1.1
%TAG !u! tag:unity3d.com,2011:
--- !u!114 &11400000
MonoBehaviour:
  m_ObjectHideFlags: 0
  m_PrefabParentObject: {fileID: 0}
  m_PrefabInternal: {fileID: 0}
  m_GameObject: {fileID: 0}
  m_Enabled: 1
  m_EditorHideFlags: 0
  m_Script: {fileID: 11500000, guid: d6922a678b436874599ef8632cc1f718, type: 3}
  m_Name: Venus
  m_EditorClassIdentifier: 
  available: 0
  icon: {fileID: 21300000, guid: b7c280e06c2e44d41a4c38c174eec703, type: 3}
  skinRarity: {fileID: 114500461961988348, guid: 773997ea5ab1b784da83455eb35ac61f,
    type: 2}
  texture: {fileID: 2800000, guid: 6f29d6f9909880641921cf8f6a85722f, type: 3}
  mesh: {fileID: 4300000, guid: 09a8010fce5ad224dba17813773a26af, type: 3}
  asteroidTexture: {fileID: 2800000, guid: 35634ecef04c40f4ea122a58f696ea26, type: 3}
  asteroidMesh: {fileID: 4300000, guid: 09a8010fce5ad224dba17813773a26af, type: 3}
